<svg width="36" height="36" viewBox="0 0 36 36" fill="none" xmlns="http://www.w3.org/2000/svg">
	<path d="M3.6 3.6001H32.4C34.38 3.6001 36 5.2201 36 7.2001V28.8001C36 30.7801 34.38 32.4001 32.4 32.4001H3.6C1.62 32.4001 0 30.7801 0 28.8001V7.2001C0 5.2201 1.62 3.6001 3.6 3.6001ZM3.6 11.8001L18 20.8001L32.4 11.8001V8.2001L18 17.2001L3.6 8.2001V11.8001Z"/>
</svg>
