<svg width="33" height="33" viewBox="0 0 33 33" fill="none" xmlns="http://www.w3.org/2000/svg">
	<g clip-path="url(#clip0)">
		<path d="M24.3466 0.356268L20.1969 0.349609C15.5349 0.349609 12.5222 3.44065 12.5222 8.22485V11.8559H8.34988C7.98934 11.8559 7.69739 12.1482 7.69739 12.5087V17.7696C7.69739 18.1302 7.98968 18.4221 8.34988 18.4221H12.5222V31.6971C12.5222 32.0576 12.8141 32.3496 13.1747 32.3496H18.6183C18.9788 32.3496 19.2708 32.0573 19.2708 31.6971V18.4221H24.1492C24.5097 18.4221 24.8016 18.1302 24.8016 17.7696L24.8036 12.5087C24.8036 12.3356 24.7347 12.1698 24.6126 12.0473C24.4904 11.9248 24.3239 11.8559 24.1508 11.8559H19.2708V8.77781C19.2708 7.29837 19.6233 6.54734 21.5505 6.54734L24.3459 6.54634C24.7061 6.54634 24.9981 6.25404 24.9981 5.89384V1.00876C24.9981 0.648893 24.7064 0.356933 24.3466 0.356268Z" fill="#2C4087"/>
	</g>
	<defs>
		<clipPath id="clip0">
			<rect width="32" height="32" fill="white" transform="translate(0.3479 0.349609)"/>
		</clipPath>
	</defs>
</svg>
